data_A_e+ee,0,data_ee,data_e
data_B_e+ee,1,data_ee,data_e
data_C_e+ee,2,data_ee,data_e
data_D_e+ee,3,data_ee,data_e
data_A_emu,10,data_emu
data_B_emu,11,data_emu
data_C_emu,12,data_emu
data_D_emu,13,data_emu
data_A_mumu,20,data_mumu
data_B_mumu,21,data_mumu
data_C_mumu,22,data_mumu
data_D_mumu,23,data_mumu
#data_A_e+ee,30,data_e
#data_B_e+ee,31,data_e
#data_C_e+ee,32,data_e
#data_D_e+ee,33,data_e
data_A_mu,40,data_mu
data_B_mu,41,data_mu
data_C_mu,42,data_mu
data_D_mu,43,data_mu
data_A_jet,50,data_jet
data_B_jet,51,data_jet
data_C_jet,52,data_jet
data_D_jet,53,data_jet

# 1xx for (manual) signal

VBF_HH_CV_0_5_C2V_1_C3_1,140,qqHH_CV_0_5_C2V_1_kl_1
VBF_HH_CV_1_5_C2V_1_C3_1,141,qqHH_CV_1_5_C2V_1_kl_1
VBF_HH_CV_1_C2V_0_C3_1,142,qqHH_CV_1_C2V_0_kl_1
VBF_HH_CV_1_C2V_1_C3_0,143,qqHH_CV_1_C2V_1_kl_0
VBF_HH_CV_1_C2V_1_C3_1,144,qqHH_CV_1_C2V_1_kl_1
VBF_HH_CV_1_C2V_1_C3_2,145,qqHH_CV_1_C2V_1_kl_2
VBF_HH_CV_1_C2V_2_C3_1,146,qqHH_CV_1_C2V_2_kl_1


TTToSemiLeptonic,201,tt_sl
TTTo2L2Nu,202,tt_dl
TTToHadronic,203,tt_fh

TTGJets,250

TGJets_leptonDecays,260
tZq_ll_4f_ckm_NLO,261,tZq_ll_4f

TTTT,270

DYJetsToLL_M-10to50,300,dy_lep_10To50
DYJetsToLL_0J,301,dy_lep_0j
DYJetsToLL_1J,302,dy_lep_1j
DYJetsToLL_2J,303,dy_lep_2j

DYJetsToLL_M-50,310,dy_lep_50ToInf

#DYJetsToLL_M-50_HT-70to100,320
#DYJetsToLL_M-50_HT-100to200,321
#DYJetsToLL_M-50_HT-200to400,322
#DYJetsToLL_M-50_HT-400to600,323
#DYJetsToLL_M-50_HT-600to800,324
#DYJetsToLL_M-50_HT-800to1200,325
#DYJetsToLL_M-50_HT-1200to2500,326
#DYJetsToLL_M-50_HT-2500toInf,327
#
#DYJetsToLL_M-4to50_HT-70to100,330
#DYJetsToLL_M-4to50_HT-100to200,331
#DYJetsToLL_M-4to50_HT-200to400,332
#DYJetsToLL_M-4to50_HT-400to600,333
#DYJetsToLL_M-4to50_HT-600toInf,334
#
#DY1JetsToLL_M-50,340
#DY2JetsToLL_M-50,341
#DY3JetsToLL_M-50,342
#DY4JetsToLL_M-50,343

DYBJetsToLL_M-50_Zpt-200toInf,360,DYBJetsToLL_M-50_Zpt-200toInf__2018
DYBJetsToLL_M-50_Zpt-100to200,361,DYBJetsToLL_M-50_Zpt-100to200__2018
DYJetsToLL_BGenFilter_Zpt-100to200_M-50,362,DYJetsToLL_BGenFilter_Zpt-100to200_M-50__2018
DYJetsToLL_BGenFilter_Zpt-200toInf_M-50,363,DYJetsToLL_BGenFilter_Zpt-200toInf_M-50__2018

ZBJetsToNuNu_Zpt-200toInf,370,zbjets_nunu_100to200
ZBJetsToNuNu_Zpt-100to200,371,zbjets_nunu_200toInf
ZJetsToNuNu_BGenFilter_Zpt-200toInf,372,ZJetsToNuNu_BGenFilter_Zpt_100to200
ZJetsToNuNu_BGenFilter_Zpt-100to200,373,ZJetsToNuNu_BGenFilter_Zpt_200toInf


#VV+,4xx
#WW,400,ww
WWTo2L2Nu_NNPDF31,401
WWTo2L2Nu_DoubleScattering,402
WWToLNuQQ_NNPDF31,403

#ZZ,410,zz
ZZTo4L,411
ZZTo2L2Q,412
ZZTo4bQ01j_5f,413

#WZ,42,wz
WZTo3LNu,421
WZTo2L2Q,422

ZGToLLG_01J_5f,430

#WGToLNuG,440
WGToLNuG_01J_5f,440

WWW_4F,450
WWZ,451,WWZ_4F
WZZ,452
ZZZ,453
WZG,454

WpWpJJ_EWK-QCD,490


#ST_t-channel_top_4f_inclusiveDecays,500,st_t_channel_top
ST_t-channel_top_4f_InclusiveDecays,501,st_t_channel_top
#ST_t-channel_antitop_4f_inclusiveDecays,502,st_t_channel_antitop
ST_t-channel_antitop_4f_InclusiveDecays,503,st_t_channel_antitop
ST_s-channel_4f_leptonDecays,504,st_s_channel
ST_tW_top_5f_inclusiveDecays,505,st_tW_top
ST_tW_antitop_5f_inclusiveDecays,506,st_tW_antitop
ST_tWll_5f_LO,507


WJetsToLNu,600

W1JetsToLNu,610
W2JetsToLNu,611
W3JetsToLNu,612
W4JetsToLNu,613

WJetsToLNu_HT-70To100,620
WJetsToLNu_HT-100To200,621
WJetsToLNu_HT-200To400,622
WJetsToLNu_HT-400To600,623
WJetsToLNu_HT-600To800,624
WJetsToLNu_HT-800To1200,625
WJetsToLNu_HT-1200To2500,626
WJetsToLNu_HT-2500ToInf,627

WBJetsToLNu_Wpt-200toInf,630,WBJetsToLNu_Wpt-200toInf__2018
WBJetsToLNu_Wpt-100to200,631,WBJetsToLNu_Wpt-100to200__2018
WJetsToLNu_BGenFilter_Wpt-100to200,640,WJetsToLNu_BGenFilter_Wpt-100to200__2018
WJetsToLNu_BGenFilter_Wpt-200toInf,641,WJetsToLNu_BGenFilter_Wpt-200toInf__2018


#TTV,7xx
TTZToLL_M-1to10,710
TTZToLLNuNu_M-10,711
TTZToQQ,712

TTWJetsToLNu,721
TTWJetsToQQ,722

TTWW,750

TTWH,760
TTZH,761


#QCD,8xx
QCD_HT50to100,801
QCD_HT100to200,802
QCD_HT200to300,803
QCD_HT300to500,804
QCD_HT500to700,805
QCD_HT700to1000,806
QCD_HT1000to1500,807
QCD_HT1500to2000,808
QCD_HT2000toInf,809

QCD_HT100to200_BGenFilter,811
QCD_HT200to300_BGenFilter,812
QCD_HT300to500_BGenFilter,813
QCD_HT500to700_BGenFilter,814
QCD_HT700to1000_BGenFilter,815
QCD_HT1000to1500_BGenFilter,816
QCD_HT1500to2000_BGenFilter,817
QCD_HT2000toInf_BGenFilter,818

QCD_Pt-15to20_EMEnriched,821
QCD_Pt-20to30_EMEnriched,822
QCD_Pt-30to50_EMEnriched,823
QCD_Pt-50to80_EMEnriched,824
QCD_Pt-80to120_EMEnriched,825
QCD_Pt-120to170_EMEnriched,826
QCD_Pt-170to300_EMEnriched,827
QCD_Pt-300toInf_EMEnriched,828

QCD_Pt-15to20_MuEnrichedPt5,831
QCD_Pt-20to30_MuEnrichedPt5,832
QCD_Pt-30to50_MuEnrichedPt5,833
QCD_Pt-50to80_MuEnrichedPt5,834
QCD_Pt-80to120_MuEnrichedPt5,835
QCD_Pt-120to170_MuEnrichedPt5,836
QCD_Pt-170to300_MuEnrichedPt5,837
QCD_Pt-300to470_MuEnrichedPt5,838
QCD_Pt-470to600_MuEnrichedPt5,839
QCD_Pt-600to800_MuEnrichedPt5,840
QCD_Pt-800to1000_MuEnrichedPt5,841
QCD_Pt-1000toInf_MuEnrichedPt5,842


#Higgs,9xx
GluGluHToTauTau_M125,900
GluGluHToMuMu_M-125,901
GluGluHToBB_M125,902
GluGluHToGG_M125,903

GluGluHToZZTo4L_M125,910
GluGluHToZZTo2L2Q_M125,911

GluGluHToWWToLNuQQ_M125,920,GluGluHToWWToLNuQQ_M125_NNPDF31
GluGluHToWWTo2L2Nu_M125,921

VBFHToTauTau_M125,930
VBFHToMuMu_M-125,931
VBFHToBB_M-125,932
VBFHToGG_M125,933

VBF_HToZZTo4L_M125,940

VBFHToWWToLNuQQ_M125,950,VBFHToWWToLNuQQ_M125_NNPDF31
VBFHToWWTo2L2Nu_M125,951

VHToNonbb_M125,960
ZH_HToBB_ZToLL_M125,961,ZH_bbll
ZHToTauTau_M125,962
WminusH_HToBB_WToLNu_M125,963
WplusH_HToBB_WToLNu_M125,964
ZH_HToBB_ZToQQ_M125,965
WminusH_HToBB_WToQQ_M125,966
WplusH_HToBB_WToQQ_M125,967

ttHJetToNonbb_M125,970
ttHJetTobb_M125,971

THQ_ctcvcp_4f_Hincl,980
THW_ctcvcp_5f_Hincl,981

HZJ_HToWW_M125,990
